Save PDFs with custom fonts
…
Mac users should ensure that XQuartz is installed which is needed
to use the cairo pdf device.

To supply custom fonts in R, the respective font needs to be
installed locally on the system.

You can make sure the font file is installed by using the
system_fonts() from the latest standard, the
{systemfont} package:

systemfonts::system_fonts()
#> # A tibble: 445 × 9
#>    path                     index name  family style weight width italic monos…¹
#>    <chr>                    <int> <chr> <chr>  <chr> <ord>  <ord> <lgl>  <lgl>  
#>  1 "C:\\WINDOWS\\Fonts\\ar…     0 Aria… Arial  Regu… normal norm… FALSE  FALSE  
#>  2 "C:\\WINDOWS\\Fonts\\ar…     0 Aria… Arial  Black heavy  norm… FALSE  FALSE  
#>  3 "C:\\WINDOWS\\Fonts\\ar…     0 Aria… Arial  Bold  bold   norm… FALSE  FALSE  
#>  4 "C:\\WINDOWS\\Fonts\\ar…     0 Aria… Arial  Bold… bold   norm… TRUE   FALSE  
#>  5 "C:\\WINDOWS\\Fonts\\ar…     0 Aria… Arial  Ital… normal norm… TRUE   FALSE  
#>  6 "C:\\WINDOWS\\Fonts\\ba…     0 Bahn… Bahns… Regu… normal norm… FALSE  FALSE  
#>  7 "C:\\WINDOWS\\Fonts\\ca…     0 Cali… Calib… Regu… normal norm… FALSE  FALSE  
#>  8 "C:\\WINDOWS\\Fonts\\ca…     0 Cali… Calib… Bold  bold   norm… FALSE  FALSE  
#>  9 "C:\\WINDOWS\\Fonts\\ca…     0 Cali… Calib… Bold… bold   norm… TRUE   FALSE  
#> 10 "C:\\WINDOWS\\Fonts\\ca…     0 Cali… Calib… Ital… normal norm… TRUE   FALSE  
#> # … with 435 more rows, and abbreviated variable name ¹​monospace
…
